第三次实验/wave.vcd
$date
	Thu Dec 01 11:19:00 2022
$end
$version
	Icarus Verilog
$end
$timescale
	1ps
$end
$scope module Testbench $end
$var reg 1 ! clk $end
$var reg 1 " rst $end
$var integer 32 # cnt [31:0] $end
$scope module mips $end
$var wire 1 ! clk $end
$var wire 1 " rst $end
$var wire 1 $ RegWrite $end
$var wire 1 % RegDst $end
$var wire 1 & MemtoReg $end
$var wire 1 ' MemWrite $end
$var wire 1 ( MemRead $end
$var wire 1 ) Jump $end
$var wire 32 * Ins [31:0] $end
$var wire 1 + ExtOp $end
$var wire 1 , Branch $end
$var wire 1 - ALUSrc $end
$var wire 3 . ALUOp [2:0] $end
$scope module Controller $end
$var wire 6 / Opcode [31:26] $end
$var reg 3 0 ALUOp [2:0] $end
$var reg 1 - ALUSrc $end
$var reg 1 , Branch $end
$var reg 1 + ExtOp $end
$var reg 1 ) Jump $end
$var reg 1 ( MemRead $end
$var reg 1 ' MemWrite $end
$var reg 1 & MemtoReg $end
$var reg 1 % RegDst $end
$var reg 1 $ RegWrite $end
$upscope $end
$scope module DataPath $end
$var wire 3 1 ALUOp [2:0] $end
$var wire 1 - ALUSrc $end
$var wire 1 , Branch $end
$var wire 1 + ExtOp $end
$var wire 1 ) Jump $end
$var wire 1 ( MemRead $end
$var wire 1 ' MemWrite $end
$var wire 1 & MemtoReg $end
$var wire 1 % RegDst $end
$var wire 1 $ RegWrite $end
$var wire 1 ! clk $end
$var wire 1 " rst $end
$var wire 5 2 mux_RegDst_out [4:0] $end
$var wire 32 3 mux_MemToReg_out [31:0] $end
$var wire 32 4 mux_ALUSrc_out [31:0] $end
$var wire 1 5 Zero $end
$var wire 5 6 WB_Reg_Write [4:0] $end
$var wire 1 7 WB_RegWrite $end
$var wire 1 8 WB_MemtoReg $end
$var wire 32 9 WB_Data_out [31:0] $end
$var wire 32 : WB_ALU [31:0] $end
$var wire 32 ; RegfileOut2 [31:0] $end
$var wire 32 < RegfileOut1 [31:0] $end
$var wire 32 = PC_add_4 [31:0] $end
$var wire 32 > PC [31:0] $end
$var wire 32 ? NPC [31:0] $end
$var wire 1 @ MEM_Zero $end
$var wire 32 A MEM_WriteData [31:0] $end
$var wire 5 B MEM_Reg_Write [4:0] $end
$var wire 1 C MEM_RegWrite $end
$var wire 32 D MEM_PC [31:0] $end
$var wire 1 E MEM_MemtoReg $end
$var wire 1 F MEM_MemWrite $end
$var wire 1 G MEM_MemRead $end
$var wire 26 H MEM_Jump_ins_add [25:0] $end
$var wire 1 I MEM_Jump $end
$var wire 32 J MEM_Extimm [31:0] $end
$var wire 1 K MEM_Branch $end
$var wire 32 L MEM_ALU [31:0] $end
$var wire 32 M Ins [31:0] $end
$var wire 32 N ID_ins [31:0] $end
$var wire 32 O ID_PC [31:0] $end
$var wire 32 P ExtOut [31:0] $end
$var wire 5 Q EX_rt [4:0] $end
$var wire 5 R EX_rd [4:0] $end
$var wire 32 S EX_Reg_data_2_out [31:0] $end
$var wire 32 T EX_Reg_data_1_out [31:0] $end
$var wire 1 U EX_RegWrite $end
$var wire 1 V EX_RegDst $end
$var wire 32 W EX_PC [31:0] $end
$var wire 1 X EX_MemtoReg $end
$var wire 1 Y EX_MemWrite $end
$var wire 1 Z EX_MemRead $end
$var wire 26 [ EX_Jump_ins_add [25:0] $end
$var wire 1 \ EX_Jump $end
$var wire 16 ] EX_Extimm [15:0] $end
$var wire 1 ^ EX_ExtOp $end
$var wire 1 _ EX_Branch $end
$var wire 1 ` EX_ALUSrc $end
$var wire 3 a EX_ALUOp [2:0] $end
$var wire 32 b DmOut [31:0] $end
$var wire 32 c AluOut [31:0] $end
$var wire 4 d AluCtrlOut [3:0] $end
$scope module ALU $end
$var wire 32 e rt [31:0] $end
$var wire 32 f rs [31:0] $end
$var wire 1 5 Zero $end
$var wire 4 g AluCtrlOut [3:0] $end
$var reg 32 h AluOut [31:0] $end
$upscope $end
$scope module ALU_controller $end
$var wire 6 i func [5:0] $end
$var wire 3 j ALUOp [2:0] $end
$var reg 4 k AluCtrlOut [3:0] $end
$upscope $end
$scope module DM_OUT_MUX $end
$var wire 1 8 MemtoReg $end
$var wire 32 l DmData [31:0] $end
$var wire 32 m ALUData [31:0] $end
$var reg 32 n mux_MemToReg_out [31:0] $end
$upscope $end
$scope module EX_MEM $end
$var wire 32 o EX_ALU [31:0] $end
$var wire 1 5 EX_Zero $end
$var wire 1 ! clk $end
$var wire 32 p EX_WriteData [31:0] $end
$var wire 5 q EX_Reg_Write [4:0] $end
$var wire 1 U EX_RegWrite $end
$var wire 32 r EX_PC [31:0] $end
$var wire 1 X EX_MemtoReg $end
$var wire 1 Y EX_MemWrite $end
$var wire 1 Z EX_MemRead $end
$var wire 26 s EX_Jump_ins_add [25:0] $end
$var wire 1 \ EX_Jump $end
$var wire 32 t EX_Extimm [31:0] $end
$var wire 1 _ EX_Branch $end
$var reg 32 u MEM_ALU [31:0] $end
$var reg 1 K MEM_Branch $end
$var reg 32 v MEM_Extimm [31:0] $end
$var reg 1 I MEM_Jump $end
$var reg 26 w MEM_Jump_ins_add [25:0] $end
$var reg 1 G MEM_MemRead $end
$var reg 1 F MEM_MemWrite $end
$var reg 1 E MEM_MemtoReg $end
$var reg 32 x MEM_PC [31:0] $end
$var reg 1 C MEM_RegWrite $end
$var reg 5 y MEM_Reg_Write [4:0] $end
$var reg 32 z MEM_WriteData [31:0] $end
$var reg 1 @ MEM_Zero $end
$upscope $end
$scope module ID_EX $end
$var wire 3 { ID_ALUOp [2:0] $end
$var wire 1 - ID_ALUSrc $end
$var wire 1 , ID_Branch $end
$var wire 1 + ID_ExtOp $end
$var wire 16 | ID_Extimm [15:0] $end
$var wire 1 ) ID_Jump $end
$var wire 26 } ID_Jump_ins_add [25:0] $end
$var wire 1 ( ID_MemRead $end
$var wire 1 ' ID_MemWrite $end
$var wire 1 & ID_MemtoReg $end
$var wire 1 % ID_RegDst $end
$var wire 1 $ ID_RegWrite $end
$var wire 5 ~ ID_rd [4:0] $end
$var wire 5 !" ID_rt [4:0] $end
$var wire 1 ! clk $end
$var wire 32 "" ID_ReadData2 [31:0] $end
$var wire 32 #" ID_ReadData1 [31:0] $end
$var wire 32 $" ID_PC [31:0] $end
$var reg 3 %" EX_ALUOp [2:0] $end
$var reg 1 ` EX_ALUSrc $end
$var reg 1 _ EX_Branch $end
$var reg 1 ^ EX_ExtOp $end
$var reg 16 &" EX_Extimm [15:0] $end
$var reg 1 \ EX_Jump $end
$var reg 26 '" EX_Jump_ins_add [25:0] $end
$var reg 1 Z EX_MemRead $end
$var reg 1 Y EX_MemWrite $end
$var reg 1 X EX_MemtoReg $end
$var reg 32 (" EX_PC [31:0] $end
$var reg 32 )" EX_ReadData1 [31:0] $end
$var reg 32 *" EX_ReadData2 [31:0] $end
$var reg 1 V EX_RegDst $end
$var reg 1 U EX_RegWrite $end
$var reg 5 +" EX_rd [4:0] $end
$var reg 5 ," EX_rt [4:0] $end
$upscope $end
$scope module IF_ID $end
$var wire 1 ! clk $end
$var wire 32 -" IF_ins [31:0] $end
$var wire 32 ." IF_PC [31:0] $end
$var reg 32 /" ID_PC [31:0] $end
$var reg 32 0" ID_ins [31:0] $end
$upscope $end
$scope module IF_ID_MUX $end
$var wire 1 V RegDst $end
$var wire 5 1" rd [4:0] $end
$var wire 5 2" rt [4:0] $end
$var reg 5 3" mux_RegDst_out [4:0] $end
$upscope $end
$scope module MEM_WB $end
$var wire 32 4" MEM_ALU [31:0] $end
$var wire 1 E MEM_MemtoReg $end
$var wire 1 C MEM_RegWrite $end
$var wire 5 5" MEM_Reg_Write [4:0] $end
$var wire 1 ! clk $end
$var wire 32 6" MEM_Data_in [31:0] $end
$var reg 32 7" WB_ALU [31:0] $end
$var reg 32 8" WB_Data_out [31:0] $end
$var reg 1 8 WB_MemtoReg $end
$var reg 1 7 WB_RegWrite $end
$var reg 5 9" WB_Reg_Write [4:0] $end
$upscope $end
$scope module RF_ALU_MUX $end
$var wire 1 ` ALUSrc $end
$var wire 32 :" rtData [31:0] $end
$var wire 32 ;" Imm [31:0] $end
$var reg 32 <" mux_ALUSrc_out [31:0] $end
$upscope $end
$scope module data_memory $end
$var wire 32 =" MEM_ALU [31:0] $end
$var wire 32 >" MEM_WriteData [31:0] $end
$var wire 1 G MemRead $end
$var wire 1 F MemWrite $end
$var wire 1 ! clk $end
$var reg 32 ?" dm_out [31:0] $end
$upscope $end
$scope module extend_immediate $end
$var wire 1 ^ ExtOp $end
$var wire 16 @" ins16 [15:0] $end
$var reg 32 A" Extimm [31:0] $end
$upscope $end
$scope module im $end
$var wire 32 B" out_ins [31:0] $end
$var wire 32 C" PC [31:0] $end
$upscope $end
$scope module npc $end
$var wire 32 D" Beq_ext_imm [31:0] $end
$var wire 1 K Branch $end
$var wire 1 I Jump $end
$var wire 26 E" Jump_ins_add [25:0] $end
$var wire 1 @ Zero $end
$var wire 32 F" PC_add_4 [31:0] $end
$var reg 32 G" NPC [31:0] $end
$var reg 32 H" PC [31:0] $end
$upscope $end
$scope module pc $end
$var wire 32 I" NPC [31:0] $end
$var wire 1 ! clk $end
$var wire 1 " rst $end
$var reg 32 J" PC [31:0] $end
$upscope $end
$scope module pc_add4 $end
$var wire 32 K" PC [31:0] $end
$var reg 32 L" PC_add_4 [31:0] $end
$upscope $end
$scope module register_files $end
$var wire 1 7 RegWrite $end
$var wire 1 ! clk $end
$var wire 5 M" rd [4:0] $end
$var wire 5 N" rs [4:0] $end
$var wire 1 " rst $end
$var wire 5 O" rt [4:0] $end
$var wire 32 P" writedata [31:0] $end
$var wire 32 Q" ReadData2 [31:0] $end
$var wire 32 R" ReadData1 [31:0] $end
$var integer 32 S" i [31:0] $end
$upscope $end
$upscope $end
$upscope $end
$upscope $end
$scope module mux_forward $end
$var wire 32 T" alu_out [31:0] $end
$var wire 2 U" forward_C [1:0] $end
$var wire 32 V" rs_rt_imm [31:0] $end
$var wire 32 W" writedata [31:0] $end
$var wire 32 X" mux_forward_out [31:0] $end
$upscope $end
$enddefinitions $end
#0
$dumpvars
bz X"
bz W"
bz V"
bz U"
bz T"
b100000 S"
bx R"
bx Q"
bx P"
bx O"
bx N"
bx M"
b11000000000100 L"
b11000000000000 K"
b11000000000000 J"
b11000000000100 I"
bx H"
b11000000000100 G"
b11000000000100 F"
bx E"
bx D"
b11000000000000 C"
b100100000010010000000000001010 B"
bx A"
bx @"
bx ?"
bx >"
bx ="
bx <"
bx ;"
bx :"
bx 9"
bx 8"
bx 7"
bx 6"
bx 5"
bx 4"
bx 3"
bx 2"
bx 1"
bx 0"
bx /"
b11000000000100 ."
b100100000010010000000000001010 -"
bx ,"
bx +"
bx *"
bx )"
bx ("
bx '"
bx &"
bx %"
bx $"
bx #"
bx ""
bx !"
bx ~
bx }
bx |
bx {
bx z
bx y
bx x
bx w
bx v
bx u
bx t
bx s
bx r
bx q
bx p
bx o
bx n
bx m
bx l
bx k
bx j
bx i
bx h
bx g
bx f
bx e
bx d
bx c
bx b
bx a
x`
x_
x^
bx ]
x\
bx [
xZ
xY
xX
bx W
xV
xU
bx T
bx S
bx R
bx Q
bx P
bx O
bx N
b100100000010010000000000001010 M
bx L
xK
bx J
xI
bx H
xG
xF
xE
bx D
xC
bx B
bx A
x@
b11000000000100 ?
b11000000000000 >
b11000000000100 =
bx <
bx ;
bx :
bx 9
x8
x7
bx 6
x5
bx 4
bx 3
bx 2
bx 1
bx 0
bx /
bx .
x-
x,
x+
bx *
x)
x(
x'
x&
x%
x$
b0 #
1"
0!
$end
#10
0"
#20
b11000000001000 ?
b11000000001000 G"
b11000000001000 I"
b11000000001000 =
b11000000001000 ."
b11000000001000 F"
b11000000001000 L"
b0 ;
b0 ""
b0 Q"
b0 <
b0 #"
b0 R"
0%
0)
0,
0(
0&
b10 .
b10 0
b10 1
b10 {
0'
0-
1$
1+
b0 ~
b1001 !"
b1010 |
b10010000000000001010 }
b1001 O"
b0 N"
b1001 /
b100100000010100000000000000000 M
b100100000010100000000000000000 -"
b100100000010100000000000000000 B"
b100100000010010000000000001010 *
b100100000010010000000000001010 N
b100100000010010000000000001010 0"
b11000000000100 O
b11000000000100 $"
b11000000000100 /"
b11000000000100 >
b11000000000100 C"
b11000000000100 J"
b11000000000100 K"
1!
b1 #
#40
0!
b10 #
#60
05
b1010 c
b1010 h
b1010 o
b11000000001100 ?
b11000000001100 G"
b11000000001100 I"
b1010 4
b1010 e
b1010 <"
b1001 2
b1001 q
b1001 3"
b11000000001100 =
b11000000001100 ."
b11000000001100 F"
b11000000001100 L"
b1010 i
b10 d
b10 g
b10 k
b1010 P
b1010 t
b1010 ;"
b1010 A"
b1010 !"
b0 |
b10100000000000000000 }
b1010 O"
b100100000010110000000000001010 M
b100100000010110000000000001010 -"
b100100000010110000000000001010 B"
b0 R
b0 +"
b0 1"
b1001 Q
b1001 ,"
b1001 2"
b1010 ]
b1010 &"
b1010 @"
b0 S
b0 p
b0 *"
b0 :"
b0 T
b0 f
b0 )"
b10010000000000001010 [
b10010000000000001010 s
b10010000000000001010 '"
b11000000000100 W
b11000000000100 r
b11000000000100 ("
b10 a
b10 j
b10 %"
1^
0`
0V
0Z
0Y
0\
0_
1U
0X
b100100000010100000000000000000 *
b100100000010100000000000000000 N
b100100000010100000000000000000 0"
b11000000001000 O
b11000000001000 $"
b11000000001000 /"
b11000000001000 >
b11000000001000 C"
b11000000001000 J"
b11000000001000 K"
1!
b11 #
#80
0!
b100 #
#100
15
b0 c
b0 h
b0 o
b11000000010000 ?
b11000000010000 G"
b11000000010000 I"
b0 4
b0 e
b0 <"
b1010 2
b1010 q
b1010 3"
b11000000010000 =
b11000000010000 ."
b11000000010000 F"
b11000000010000 L"
b0 i
b1011 !"
b1010 |
b10110000000000001010 }
b1011 O"
b0 P
b0 t
b0 ;"
b0 A"
b100100000011000000000000000001 M
b100100000011000000000000000001 -"
b100100000011000000000000000001 B"
b100100000010110000000000001010 *
b100100000010110000000000001010 N
b100100000010110000000000001010 0"
b11000000001100 O
b11000000001100 $"
b11000000001100 /"
b1010 Q
b1010 ,"
b1010 2"
b0 ]
b0 &"
b0 @"
b10100000000000000000 [
b10100000000000000000 s
b10100000000000000000 '"
b11000000001000 W
b11000000001000 r
b11000000001000 ("
b1001 B
b1001 y
b1001 5"
b1010 J
b1010 v
b1010 D"
b0 A
b0 z
b0 >"
b1010 L
b1010 u
b1010 4"
b1010 ="
0@
b10010000000000001010 H
b10010000000000001010 w
b10010000000000001010 E"
b11000000000100 D
b11000000000100 x
0G
0F
0I
0K
1C
0E
b11000000001100 >
b11000000001100 C"
b11000000001100 J"
b11000000001100 K"
1!
b101 #
#120
0!
b110 #
#140
05
b1010 c
b1010 h
b1010 o
b11000000010100 ?
b11000000010100 G"
b11000000010100 I"
b1010 4
b1010 e
b1010 <"
b1010 3
b1010 n
b1010 P"
b1011 2
b1011 q
b1011 3"
b11000000010100 =
b11000000010100 ."
b11000000010100 F"
b11000000010100 L"
b1010 i
b1010 P
b1010 t
b1010 ;"
b1010 A"
b1100 !"
b1 |
b11000000000000000001 }
b1100 O"
b100100000011110000000000000100 M
b100100000011110000000000000100 -"
b100100000011110000000000000100 B"
b1001 6
b1001 9"
b1001 M"
b1010 :
b1010 m
b1010 7"
17
08
b1010 B
b1010 y
b1010 5"
b0 J
b0 v
b0 D"
b0 L
b0 u
b0 4"
b0 ="
1@
b10100000000000000000 H
b10100000000000000000 w
b10100000000000000000 E"
b11000000001000 D
b11000000001000 x
b1011 Q
b1011 ,"
b1011 2"
b1010 ]
b1010 &"
b1010 @"
b10110000000000001010 [
b10110000000000001010 s
b10110000000000001010 '"
b11000000001100 W
b11000000001100 r
b11000000001100 ("
b100100000011000000000000000001 *
b100100000011000000000000000001 N
b100100000011000000000000000001 0"
b11000000010000 O
b11000000010000 $"
b11000000010000 /"
b11000000010000 >
b11000000010000 C"
b11000000010000 J"
b11000000010000 K"
1!
b111 #
#160
0!
b1000 #
#180
b1 c
b1 h
b1 o
b11000000011000 ?
b11000000011000 G"
b11000000011000 I"
b1 4
b1 e
b1 <"
b1100 2
b1100 q
b1100 3"
b0 3
b0 n
b0 P"
b11000000011000 =
b11000000011000 ."
b11000000011000 F"
b11000000011000 L"
b1 i
b1111 !"
b100 |
b11110000000000000100 }
b1111 O"
b1 P
b1 t
b1 ;"
b1 A"
b100100000000100000000000000000 M
b100100000000100000000000000000 -"
b100100000000100000000000000000 B"
b100100000011110000000000000100 *
b100100000011110000000000000100 N
b100100000011110000000000000100 0"
b11000000010100 O
b11000000010100 $"
b11000000010100 /"
b1100 Q
b1100 ,"
b1100 2"
b1 ]
b1 &"
b1 @"
b11000000000000000001 [
b11000000000000000001 s
b11000000000000000001 '"
b11000000010000 W
b11000000010000 r
b11000000010000 ("
b1011 B
b1011 y
b1011 5"
b1010 J
b1010 v
b1010 D"
b1010 L
b1010 u
b1010 4"
b1010 ="
0@
b10110000000000001010 H
b10110000000000001010 w
b10110000000000001010 E"
b11000000001100 D
b11000000001100 x
b1010 6
b1010 9"
b1010 M"
b0 :
b0 m
b0 7"
b11000000010100 >
b11000000010100 C"
b11000000010100 J"
b11000000010100 K"
1!
b1001 #
#200
0!
b1010 #
#220
b100 c
b100 h
b100 o
b11000000011100 ?
b11000000011100 G"
b11000000011100 I"
b100 4
b100 e
b100 <"
b1010 3
b1010 n
b1010 P"
b1111 2
b1111 q
b1111 3"
b11000000011100 =
b11000000011100 ."
b11000000011100 F"
b11000000011100 L"
b100 i
b100 P
b100 t
b100 ;"
b100 A"
b10 !"
b0 |
b100000000000000000 }
b10 O"
b10010110001100000101010 M
b10010110001100000101010 -"
b10010110001100000101010 B"
b1011 6
b1011 9"
b1011 M"
b1010 :
b1010 m
b1010 7"
b1100 B
b1100 y
b1100 5"
b1 J
b1 v
b1 D"
b1 L
b1 u
b1 4"
b1 ="
b11000000000000000001 H
b11000000000000000001 w
b11000000000000000001 E"
b11000000010000 D
b11000000010000 x
b1111 Q
b1111 ,"
b1111 2"
b100 ]
b100 &"
b100 @"
b11110000000000000100 [
b11110000000000000100 s
b11110000000000000100 '"
b11000000010100 W
b11000000010100 r
b11000000010100 ("
b100100000000100000000000000000 *
b100100000000100000000000000000 N
b100100000000100000000000000000 0"
b11000000011000 O
b11000000011000 $"
b11000000011000 /"
b11000000011000 >
b11000000011000 C"
b11000000011000 J"
b11000000011000 K"
1!
b1011 #
#240
0!
b1100 #
#260
15
b0 c
b0 h
b0 o
b11000000100000 ?
b11000000100000 G"
b11000000100000 I"
b0 4
b0 e
b0 <"
b10 2
b10 q
b10 3"
b1 3
b1 n
b1 P"
b11000000100000 =
b11000000100000 ."
b11000000100000 F"
b11000000100000 L"
b1010 ;
b1010 ""
b1010 Q"
1%
b0 .
b0 0
b0 1
b0 {
1-
b0 i
b11 ~
b1011 !"
b1100000101010 |
b10010110001100000101010 }
b1011 O"
b10 N"
b0 /
b0 P
b0 t
b0 ;"
b0 A"
b100000000000010000000000000000 M
b100000000000010000000000000000 -"
b100000000000010000000000000000 B"
b10010110001100000101010 *
b10010110001100000101010 N
b10010110001100000101010 0"
b11000000011100 O
b11000000011100 $"
b11000000011100 /"
b10 Q
b10 ,"
b10 2"
b0 ]
b0 &"
b0 @"
b100000000000000000 [
b100000000000000000 s
b100000000000000000 '"
b11000000011000 W
b11000000011000 r
b11000000011000 ("
b1111 B
b1111 y
b1111 5"
b100 J
b100 v
b100 D"
b100 L
b100 u
b100 4"
b100 ="
b11110000000000000100 H
b11110000000000000100 w
b11110000000000000100 E"
b11000000010100 D
b11000000010100 x
b1100 6
b1100 9"
b1100 M"
b1 :
b1 m
b1 7"
b11000000011100 >
b11000000011100 C"
b11000000011100 J"
b11000000011100 K"
1!
b1101 #
#280
0!
b1110 #
#300
05
b1 c
b1 h
b1 o
b11000000100100 ?
b11000000100100 G"
b11000000100100 I"
b100 3
b100 n
b100 P"
b1010 4
b1010 e
b1010 <"
b11 2
b11 q
b11 3"
b11000000100100 =
b11000000100100 ."
b11000000100100 F"
b11000000100100 L"
b111 d
b111 g
b111 k
b101010 i
b0 ;
b0 ""
b0 Q"
0%
b10 .
b10 0
b10 1
b10 {
0-
0+
b1100000101010 P
b1100000101010 t
b1100000101010 ;"
b1100000101010 A"
b0 ~
b1 !"
b0 |
b10000000000000000 }
b1 O"
b0 N"
b1000 /
b10000001000110000000000000101 M
b10000001000110000000000000101 -"
b10000001000110000000000000101 B"
b1111 6
b1111 9"
b1111 M"
b100 :
b100 m
b100 7"
b10 B
b10 y
b10 5"
b0 J
b0 v
b0 D"
b0 L
b0 u
b0 4"
b0 ="
1@
b100000000000000000 H
b100000000000000000 w
b100000000000000000 E"
b11000000011000 D
b11000000011000 x
b11 R
b11 +"
b11 1"
b1011 Q
b1011 ,"
b1011 2"
b1100000101010 ]
b1100000101010 &"
b1100000101010 @"
b1010 S
b1010 p
b1010 *"
b1010 :"
b10010110001100000101010 [
b10010110001100000101010 s
b10010110001100000101010 '"
b11000000011100 W
b11000000011100 r
b11000000011100 ("
b0 a
b0 j
b0 %"
1`
1V
b100000000000010000000000000000 *
b100000000000010000000000000000 N
b100000000000010000000000000000 0"
b11000000100000 O
b11000000100000 $"
b11000000100000 /"
b11000000100000 >
b11000000100000 C"
b11000000100000 J"
b11000000100000 K"
1!
b1111 #
#320
0!
b10000 #
#340
15
b11000000101000 ?
b11000000101000 G"
b11000000101000 I"
b0 4
b0 e
b0 <"
b1 2
b1 q
b1 3"
b0 3
b0 n
b0 P"
b11000000101000 =
b11000000101000 ."
b11000000101000 F"
b11000000101000 L"
1,
b110 .
b110 0
b110 1
b110 {
1-
0$
1+
b0 c
b0 h
b0 o
b0 i
b11 !"
b101 |
b1000110000000000000101 }
b11 O"
b1 N"
b100 /
b10 d
b10 g
b10 k
b0 P
b0 t
b0 ;"
b0 A"
b100000010000100000000000000001 M
b100000010000100000000000000001 -"
b100000010000100000000000000001 B"
b10000001000110000000000000101 *
b10000001000110000000000000101 N
b10000001000110000000000000101 0"
b11000000100100 O
b11000000100100 $"
b11000000100100 /"
b0 R
b0 +"
b0 1"
b1 Q
b1 ,"
b1 2"
b0 ]
b0 &"
b0 @"
b0 S
b0 p
b0 *"
b0 :"
b10000000000000000 [
b10000000000000000 s
b10000000000000000 '"
b11000000100000 W
b11000000100000 r
b11000000100000 ("
b10 a
b10 j
b10 %"
0^
0`
0V
b11 B
b11 y
b11 5"
b1100000101010 J
b1100000101010 v
b1100000101010 D"
b1010 A
b1010 z
b1010 >"
b1 L
b1 u
b1 4"
b1 ="
0@
b10010110001100000101010 H
b10010110001100000101010 w
b10010110001100000101010 E"
b11000000011100 D
b11000000011100 x
b10 6
b10 9"
b10 M"
b0 :
b0 m
b0 7"
b11000000100100 >
b11000000100100 C"
b11000000100100 J"
b11000000100100 K"
1!
b10001 #
#360
0!
b10010 #
#380
b11000000101100 ?
b11000000101100 G"
b11000000101100 I"
b1 3
b1 n
b1 P"
b11 2
b11 q
b11 3"
b11000000101100 =
b11000000101100 ."
b11000000101100 F"
b11000000101100 L"
b101 i
0,
b10 .
b10 0
b10 1
b10 {
0-
1$
0+
b110 d
b110 g
b110 k
b101 P
b101 t
b101 ;"
b101 A"
b10 !"
b1 |
b10000100000000000000001 }
b10 O"
b10 N"
b1000 /
b10101101010010010000000000000000 M
b10101101010010010000000000000000 -"
b10101101010010010000000000000000 B"
b11 6
b11 9"
b11 M"
b1 :
b1 m
b1 7"
b1 B
b1 y
b1 5"
b0 J
b0 v
b0 D"
b0 A
b0 z
b0 >"
b0 L
b0 u
b0 4"
b0 ="
1@
b10000000000000000 H
b10000000000000000 w
b10000000000000000 E"
b11000000100000 D
b11000000100000 x
b11 Q
b11 ,"
b11 2"
b101 ]
b101 &"
b101 @"
b1000110000000000000101 [
b1000110000000000000101 s
b1000110000000000000101 '"
b11000000100100 W
b11000000100100 r
b11000000100100 ("
b110 a
b110 j
b110 %"
1^
1`
1_
0U
b100000010000100000000000000001 *
b100000010000100000000000000001 N
b100000010000100000000000000001 0"
b11000000101000 O
b11000000101000 $"
b11000000101000 /"
b11000000101000 >
b11000000101000 C"
b11000000101000 J"
b11000000101000 K"
1!
b10011 #
#400
0!
b10100 #
#420
05
b1 c
b1 h
b1 o
b10 2
b10 q
b10 3"
b1 4
b1 e
b1 <"
b0 3
b0 n
b0 P"
b11000000110000 =
b11000000110000 ."
b11000000110000 F"
b11000000110000 L"
b1010 ;
b1010 ""
b1010 Q"
1'
0$
b1 i
b1001 !"
b0 |
b1010010010000000000000000 }
b1001 O"
b1010 N"
b101011 /
b10 d
b10 g
b10 k
b1 P
b1 t
b1 ;"
b1 A"
b11000001000100 ?
b11000001000100 G"
b11000001000100 I"
b1001011000100100000100010 M
b1001011000100100000100010 -"
b1001011000100100000100010 B"
b10101101010010010000000000000000 *
b10101101010010010000000000000000 N
b10101101010010010000000000000000 0"
b11000000101100 O
b11000000101100 $"
b11000000101100 /"
b10 Q
b10 ,"
b10 2"
b1 ]
b1 &"
b1 @"
b10000100000000000000001 [
b10000100000000000000001 s
b10000100000000000000001 '"
b11000000101000 W
b11000000101000 r
b11000000101000 ("
b10 a
b10 j
b10 %"
0^
0`
0_
1U
b11 B
b11 y
b11 5"
b101 J
b101 v
b101 D"
b1000110000000000000101 H
b1000110000000000000101 w
b1000110000000000000101 E"
b11000000100100 D
b11000000100100 x
1K
0C
b1 6
b1 9"
b1 M"
b0 :
b0 m
b0 7"
b11000000101100 >
b11000000101100 C"
b11000000101100 J"
b11000000101100 K"
1!
b10101 #
#440
0!
b10110 #
#460
15
b0 c
b0 h
b0 o
b0 4
b0 e
b0 <"
b1001 2
b1001 q
b1001 3"
b11000001001000 =
b11000001001000 ."
b11000001001000 F"
b11000001001000 L"
b0 i
b1 ;
b1 ""
b1 Q"
b1010 <
b1010 #"
b1010 R"
1%
b0 .
b0 0
b0 1
b0 {
0'
1-
1$
1+
b11000001001000 ?
b11000001001000 G"
b11000001001000 I"
b0 P
b0 t
b0 ;"
b0 A"
b1001 ~
b1100 !"
b100100000100010 |
b1001011000100100000100010 }
b1100 O"
b1001 N"
b0 /
b1011011000101100000100010 M
b1011011000101100000100010 -"
b1011011000101100000100010 B"
b11 6
b11 9"
b11 M"
07
b10 B
b10 y
b10 5"
b1 J
b1 v
b1 D"
b1 L
b1 u
b1 4"
b1 ="
0@
b10000100000000000000001 H
b10000100000000000000001 w
b10000100000000000000001 E"
b11000000101000 D
b11000000101000 x
0K
1C
b1001 Q
b1001 ,"
b1001 2"
b0 ]
b0 &"
b0 @"
b1010 S
b1010 p
b1010 *"
b1010 :"
b1010010010000000000000000 [
b1010010010000000000000000 s
b1010010010000000000000000 '"
b11000000101100 W
b11000000101100 r
b11000000101100 ("
1Y
0U
b1001011000100100000100010 *
b1001011000100100000100010 N
b1001011000100100000100010 0"
b11000000110000 O
b11000000110000 $"
b11000000110000 /"
b11000001000100 >
b11000001000100 C"
b11000001000100 J"
b11000001000100 K"
1!
b10111 #
#480
0!
b11000 #
#500
b11000001001100 ?
b11000001001100 G"
b11000001001100 I"
b1 4
b1 e
b1 <"
b1 3
b1 n
b1 P"
b11000001001100 =
b11000001001100 ."
b11000001001100 F"
b11000001001100 L"
05
b110 d
b110 g
b110 k
b100010 i
b1011 ~
b101100000100010 |
b1011011000101100000100010 }
b1011 N"
b1001 c
b1001 h
b1001 o
b100100000100010 P
b100100000100010 t
b100100000100010 ;"
b100100000100010 A"
b100100000010100000000000000000 M
b100100000010100000000000000000 -"
b100100000010100000000000000000 B"
b1011011000101100000100010 *
b1011011000101100000100010 N
b1011011000101100000100010 0"
b11000001001000 O
b11000001001000 $"
b11000001001000 /"
b1001 R
b1001 +"
b1001 1"
b1100 Q
b1100 ,"
b1100 2"
b100100000100010 ]
b100100000100010 &"
b100100000100010 @"
b1 S
b1 p
b1 *"
b1 :"
b1010 T
b1010 f
b1010 )"
b1001011000100100000100010 [
b1001011000100100000100010 s
b1001011000100100000100010 '"
b11000000110000 W
b11000000110000 r
b11000000110000 ("
b0 a
b0 j
b0 %"
1^
1`
1V
0Y
1U
b1001 B
b1001 y
b1001 5"
b0 J
b0 v
b0 D"
b1010 A
b1010 z
b1010 >"
b0 L
b0 u
b0 4"
b0 ="
1@
b1010010010000000000000000 H
b1010010010000000000000000 w
b1010010010000000000000000 E"
b11000000101100 D
b11000000101100 x
1F
0C
b10 6
b10 9"
b10 M"
b1 :
b1 m
b1 7"
17
b11000001001000 >
b11000001001000 C"
b11000001001000 J"
b11000001001000 K"
1!
b11001 #
#520
0!
b11010 #
