第五次实验/wave.vcd
$date
	Sun Dec 04 21:44:16 2022
$end
$version
	Icarus Verilog
$end
$timescale
	1s
$end
$scope module Testbench $end
$var reg 1 ! clk $end
$var reg 1 " rst $end
$var integer 32 # cnt [31:0] $end
$scope module mips $end
$var wire 1 ! clk $end
$var wire 1 " rst $end
$var wire 1 $ zero $end
$var wire 1 % undefine $end
$var wire 32 & regfile_out2 [31:0] $end
$var wire 32 ' regfile_out1 [31:0] $end
$var wire 5 ( rd [4:0] $end
$var wire 1 ) overflow $end
$var wire 32 * mux_forward_out_2 [31:0] $end
$var wire 32 + mux_forward_out_1 [31:0] $end
$var wire 5 , mux_RegDst_out [4:0] $end
$var wire 32 - mux_MemToReg_out [31:0] $end
$var wire 32 . mux_ALUSrc_out [31:0] $end
$var wire 32 / instruction [31:0] $end
$var wire 2 0 forwardrtd [1:0] $end
$var wire 2 1 forwardrt [1:0] $end
$var wire 2 2 forwardrsd [1:0] $end
$var wire 2 3 forwardrs [1:0] $end
$var wire 1 4 flushE $end
$var wire 32 5 ext_out [31:0] $end
$var wire 32 6 dm_out [31:0] $end
$var wire 32 7 alu_out [31:0] $end
$var wire 3 8 alu_ctrl_out [2:0] $end
$var wire 32 9 WB_dm_out [31:0] $end
$var wire 32 : WB_alu_out [31:0] $end
$var wire 1 ; WB_RegWrite $end
$var wire 1 < WB_MemtoReg $end
$var wire 1 = RegWrite $end
$var wire 1 > RegDst $end
$var wire 32 ? PC_Branch [31:0] $end
$var wire 1 @ PCWrite $end
$var wire 32 A PC [31:0] $end
$var wire 32 B NPC [31:0] $end
$var wire 1 C MemtoReg $end
$var wire 1 D MemWrite $end
$var wire 1 E MEM_zero $end
$var wire 1 F MEM_undefine $end
$var wire 32 G MEM_pc [31:0] $end
$var wire 1 H MEM_overflow $end
$var wire 5 I MEM_mux_RegDst_out [4:0] $end
$var wire 26 J MEM_jump_Addr [25:0] $end
$var wire 32 K MEM_alu_out [31:0] $end
$var wire 1 L MEM_RegWrite $end
$var wire 32 M MEM_ReadData2 [31:0] $end
$var wire 1 N MEM_MemtoReg $end
$var wire 1 O MEM_MemWrite $end
$var wire 1 P MEM_Jump $end
$var wire 1 Q MEM_Branch $end
$var wire 1 R Jump $end
$var wire 1 S IFflush $end
$var wire 1 T IFWrite $end
$var wire 32 U ID_ins [31:0] $end
$var wire 32 V ID_PC [31:0] $end
$var wire 1 W Ext_op $end
$var wire 26 X EX_ins [25:0] $end
$var wire 1 Y EX_RegWrite $end
$var wire 1 Z EX_RegDst $end
$var wire 32 [ EX_ReadData2 [31:0] $end
$var wire 32 \ EX_ReadData1 [31:0] $end
$var wire 32 ] EX_PC [31:0] $end
$var wire 1 ^ EX_MemtoReg $end
$var wire 1 _ EX_MemWrite $end
$var wire 1 ` EX_Jump $end
$var wire 32 a EX_Extimm [31:0] $end
$var wire 1 b EX_Ext_op $end
$var wire 1 c EX_Branch $end
$var wire 1 d EX_ALUSrc $end
$var wire 3 e EX_ALUOp [2:0] $end
$var wire 1 f Compare_Zero $end
$var wire 1 g Branch $end
$var wire 1 h ALUSrc $end
$var wire 3 i ALUOp [2:0] $end
$scope module ALU $end
$var wire 1 $ zero $end
$var wire 32 j B [31:0] $end
$var wire 3 k AluCtrlOut [2:0] $end
$var wire 32 l A [31:0] $end
$var reg 32 m AluOut [31:0] $end
$var reg 1 ) overflow $end
$var reg 33 n temp [32:0] $end
$upscope $end
$scope module ALU_controller $end
$var wire 6 o func [5:0] $end
$var wire 3 p EX_ALUOp [2:0] $end
$var reg 3 q AluCtrlOut [2:0] $end
$var reg 1 % undefine $end
$upscope $end
$scope module Ctrl $end
$var wire 6 r Opcode [31:26] $end
$var reg 3 s ALUOp [2:0] $end
$var reg 1 h ALUSrc $end
$var reg 1 g Branch $end
$var reg 1 W Ext_op $end
$var reg 1 R Jump $end
$var reg 1 D MemWrite $end
$var reg 1 C MemtoReg $end
$var reg 1 > RegDst $end
$var reg 1 = RegWrite $end
$upscope $end
$scope module DM_OUT_MUX $end
$var wire 32 t WB_dm_out [31:0] $end
$var wire 1 < WB_MemtoReg $end
$var wire 32 u WB_AluOut [31:0] $end
$var reg 32 v mux_MemToReg_out [31:0] $end
$upscope $end
$scope module Forward_MUX_1 $end
$var wire 32 w mux_MemToReg_out [31:0] $end
$var wire 2 x forward [1:0] $end
$var wire 32 y MEM_AluOut [31:0] $end
$var wire 32 z EX_ReadData [31:0] $end
$var reg 32 { mux_forward_out [31:0] $end
$upscope $end
$scope module Forward_MUX_2 $end
$var wire 32 | mux_MemToReg_out [31:0] $end
$var wire 2 } forward [1:0] $end
$var wire 32 ~ MEM_AluOut [31:0] $end
$var wire 32 !" EX_ReadData [31:0] $end
$var reg 32 "" mux_forward_out [31:0] $end
$upscope $end
$scope module IF_ID_MUX $end
$var wire 5 #" rd [4:0] $end
$var wire 5 $" rt [4:0] $end
$var wire 1 Z EX_RegDst $end
$var reg 5 %" mux_RegDst_out [4:0] $end
$upscope $end
$scope module RF_ALU_MUX $end
$var wire 32 &" mux_forward_out2 [31:0] $end
$var wire 32 '" Extimm [31:0] $end
$var wire 1 d EX_ALUSrc $end
$var reg 32 (" mux_ALUSrc_out [31:0] $end
$upscope $end
$scope module compare $end
$var wire 32 )" AluOut [31:0] $end
$var wire 2 *" forwardrtd [1:0] $end
$var wire 2 +" forwardrsd [1:0] $end
$var wire 32 ," ReadData2 [31:0] $end
$var wire 32 -" ReadData1 [31:0] $end
$var wire 32 ." MEM_AluOut [31:0] $end
$var reg 1 f Compare_Zero $end
$var reg 32 /" num1 [31:0] $end
$var reg 32 0" num2 [31:0] $end
$upscope $end
$scope module data_memory $end
$var wire 1 ! clk $end
$var wire 32 1" dm_out [31:0] $end
$var wire 32 2" MEM_writedata [31:0] $end
$var wire 1 O MEM_MemWrite $end
$var wire 32 3" MEM_AluOut [31:0] $end
$upscope $end
$scope module exmem $end
$var wire 32 4" AluOut [31:0] $end
$var wire 1 ! clk $end
$var wire 5 5" mux_RegDst_out [4:0] $end
$var wire 1 ) overflow $end
$var wire 1 " rst $end
$var wire 1 % undefine $end
$var wire 1 $ zero $end
$var wire 32 6" Extimm [31:0] $end
$var wire 26 7" EX_ins [25:0] $end
$var wire 1 Y EX_RegWrite $end
$var wire 32 8" EX_ReadData2 [31:0] $end
$var wire 32 9" EX_PC [31:0] $end
$var wire 1 ^ EX_MemtoReg $end
$var wire 1 _ EX_MemWrite $end
$var wire 1 ` EX_Jump $end
$var wire 1 c EX_Branch $end
$var reg 26 :" Jump_Addr [25:0] $end
$var reg 32 ;" MEM_AluOut [31:0] $end
$var reg 1 Q MEM_Branch $end
$var reg 1 P MEM_Jump $end
$var reg 1 O MEM_MemWrite $end
$var reg 1 N MEM_MemtoReg $end
$var reg 32 <" MEM_PC [31:0] $end
$var reg 32 =" MEM_ReadData2 [31:0] $end
$var reg 1 L MEM_RegWrite $end
$var reg 5 >" MEM_mux_RegDst_out [4:0] $end
$var reg 1 H MEM_overflow $end
$var reg 1 F MEM_undefine $end
$var reg 1 E MEM_zero $end
$var reg 32 ?" PC_Branch [31:0] $end
$upscope $end
$scope module extension_unit $end
$var wire 1 W Ext_op $end
$var wire 16 @" ins16 [15:0] $end
$var reg 32 A" Extimm [31:0] $end
$upscope $end
$scope module hazd_forward $end
$var wire 1 g Branch $end
$var wire 1 f Compare_Zero $end
$var wire 5 B" EX_rs [4:0] $end
$var wire 5 C" EX_rt [4:0] $end
$var wire 5 D" ID_rs [4:0] $end
$var wire 5 E" ID_rt [4:0] $end
$var wire 1 R Jump $end
$var wire 1 N MEM_MemtoReg $end
$var wire 1 L MEM_RegWrite $end
$var wire 5 F" MEM_mux_RegDst_out [4:0] $end
$var wire 5 G" mux_RegDst_out [4:0] $end
$var wire 5 H" rd [4:0] $end
$var wire 1 ; WB_RegWrite $end
$var wire 1 Y EX_RegWrite $end
$var wire 1 ^ EX_MemtoReg $end
$var wire 1 _ EX_MemWrite $end
$var reg 1 I" CBD $end
$var reg 1 J" CBDMRS $end
$var reg 1 K" CBDMRT $end
$var reg 1 L" CLDERS $end
$var reg 1 M" CLDERT $end
$var reg 1 4 EXflush $end
$var reg 1 T IFWrite $end
$var reg 1 S IFflush $end
$var reg 1 @ PCWrite $end
$var reg 2 N" forward_rs_compare [1:0] $end
$var reg 2 O" forward_rt_compare [1:0] $end
$var reg 2 P" forwardrs [1:0] $end
$var reg 2 Q" forwardrt [1:0] $end
$upscope $end
$scope module idex $end
$var wire 3 R" ALUOp [2:0] $end
$var wire 1 h ALUSrc $end
$var wire 1 g Branch $end
$var wire 1 4 EXflush $end
$var wire 1 W Ext_op $end
$var wire 32 S" Extimm [31:0] $end
$var wire 26 T" ID_ins [25:0] $end
$var wire 1 R Jump $end
$var wire 1 D MemWrite $end
$var wire 1 C MemtoReg $end
$var wire 1 > RegDst $end
$var wire 1 = RegWrite $end
$var wire 1 ! clk $end
$var wire 1 " rst $end
$var wire 32 U" ReadData2 [31:0] $end
$var wire 32 V" ReadData1 [31:0] $end
$var wire 32 W" ID_PC [31:0] $end
$var reg 3 X" EX_ALUOp [2:0] $end
$var reg 1 d EX_ALUSrc $end
$var reg 1 c EX_Branch $end
$var reg 1 b EX_Ext_op $end
$var reg 32 Y" EX_Extimm [31:0] $end
$var reg 1 ` EX_Jump $end
$var reg 1 _ EX_MemWrite $end
$var reg 1 ^ EX_MemtoReg $end
$var reg 32 Z" EX_PC [31:0] $end
$var reg 32 [" EX_ReadData1 [31:0] $end
$var reg 32 \" EX_ReadData2 [31:0] $end
$var reg 1 Z EX_RegDst $end
$var reg 1 Y EX_RegWrite $end
$var reg 26 ]" EX_ins [25:0] $end
$upscope $end
$scope module if_id $end
$var wire 1 T IFWrite $end
$var wire 1 S IFflush $end
$var wire 1 ! clk $end
$var wire 1 " rst $end
$var wire 32 ^" IF_ins [31:0] $end
$var wire 32 _" IF_PC [31:0] $end
$var reg 32 `" ID_PC [31:0] $end
$var reg 32 a" ID_ins [31:0] $end
$upscope $end
$scope module im $end
$var wire 32 b" out_ins [31:0] $end
$var wire 32 c" PC [31:0] $end
$upscope $end
$scope module memwb $end
$var wire 32 d" MEM_AluOut [31:0] $end
$var wire 1 N MEM_MemtoReg $end
$var wire 32 e" MEM_PC [31:0] $end
$var wire 1 L MEM_RegWrite $end
$var wire 5 f" MEM_mux_RegDst_out [4:0] $end
$var wire 1 H MEM_overflow $end
$var wire 1 F MEM_undefine $end
$var wire 1 ! clk $end
$var wire 32 g" dm_out [31:0] $end
$var wire 1 " rst $end
$var reg 32 h" WB_AluOut [31:0] $end
$var reg 1 < WB_MemtoReg $end
$var reg 1 ; WB_RegWrite $end
$var reg 32 i" WB_dm_out [31:0] $end
$var reg 5 j" rd [4:0] $end
$upscope $end
$scope module npc $end
$var wire 32 k" Beq_ext_imm [31:0] $end
$var wire 1 g Branch $end
$var wire 1 f Compare_Zero $end
$var wire 1 R Jump $end
$var wire 32 l" Jump_ins_add [31:0] $end
$var wire 32 m" PC_add_4 [31:0] $end
$var wire 32 n" PC [31:0] $end
$var reg 32 o" NPC [31:0] $end
$upscope $end
$scope module pc $end
$var wire 32 p" NPC [31:0] $end
$var wire 1 @ PCWrite $end
$var wire 1 ! clk $end
$var wire 1 " rst $end
$var reg 32 q" PC [31:0] $end
$upscope $end
$scope module register_files $end
$var wire 1 ; WB_RegWrite $end
$var wire 1 ! clk $end
$var wire 5 r" rd [4:0] $end
$var wire 5 s" rs [4:0] $end
$var wire 1 " rst $end
$var wire 5 t" rt [4:0] $end
$var wire 32 u" writedata [31:0] $end
$var wire 32 v" ReadData2 [31:0] $end
$var wire 32 w" ReadData1 [31:0] $end
$var integer 32 x" i [31:0] $end
$upscope $end
$upscope $end
$upscope $end
$enddefinitions $end
#0
$dumpvars
b100000 x"
bx w"
bx v"
bx u"
bx t"
bx s"
bx r"
b11000000000000 q"
b11000000000100 p"
b11000000000100 o"
b11000000000000 n"
bx m"
bx l"
b0xxxxxxxxxxxxxxxx k"
bx j"
bx i"
bx h"
bx g"
bx f"
bx e"
bx d"
b11000000000000 c"
b0 b"
bx a"
bx `"
b11000000000000 _"
b0 ^"
bx ]"
bx \"
bx ["
bx Z"
bx Y"
bx X"
bx W"
bx V"
bx U"
bx T"
b0xxxxxxxxxxxxxxxx S"
b111 R"
b0 Q"
b0 P"
b0 O"
b0 N"
0M"
0L"
xK"
xJ"
0I"
bx H"
bx G"
bx F"
bx E"
bx D"
bx C"
bx B"
b0xxxxxxxxxxxxxxxx A"
bx @"
bx ?"
bx >"
bx ="
bx <"
bx ;"
bx :"
bx 9"
bx 8"
bx 7"
b0xxxxxxxxxxxxxxxx 6"
bx 5"
bx 4"
bx 3"
bx 2"
bx 1"
bx 0"
bx /"
bx ."
bx -"
bx ,"
b0 +"
b0 *"
bx )"
bx ("
bx '"
bx &"
bx %"
bx $"
bx #"
bx ""
bx !"
bx ~
b0 }
bx |
bx {
bx z
bx y
b0 x
bx w
bx v
bx u
bx t
b111 s
bx r
bx q
bx p
bx o
bx n
bx m
bx l
bx k
bx j
b111 i
0h
0g
0f
bx e
xd
xc
xb
bx a
x`
x_
x^
bx ]
bx \
bx [
xZ
xY
bx X
0W
bx V
bx U
1T
0S
0R
xQ
xP
xO
xN
bx M
xL
bx K
bx J
bx I
xH
bx G
xF
xE
0D
0C
b11000000000100 B
b11000000000000 A
1@
bx ?
0>
0=
x<
x;
bx :
bx 9
bx 8
bx 7
bx 6
b0xxxxxxxxxxxxxxxx 5
04
b0 3
b0 2
b0 1
b0 0
b0 /
bx .
bx -
bx ,
bx +
bx *
x)
bx (
bx '
bx &
x%
x$
b0 #
1"
0!
$end
#10
0"
#20
1!
b1 #
#40
1f
b0 0"
b0 /"
b0 5
b0 6"
b0 A"
b0 S"
b0 k"
b0 &
b0 ,"
b0 U"
b0 v"
b0 '
b0 -"
b0 V"
b0 w"
1>
1=
b10 i
b10 s
b10 R"
1%
b100 8
b100 k
b100 q
b0 E"
b0 D"
b0 @"
b0 T"
b0 t"
b0 s"
b0 r
b11111111111111111111111111111111 /
b11111111111111111111111111111111 ^"
b11111111111111111111111111111111 b"
b11000000001000 B
b11000000001000 o"
b11000000001000 p"
b0xxxxxxxxxxxxxxxx a
b0xxxxxxxxxxxxxxxx '"
b0xxxxxxxxxxxxxxxx Y"
0b
0`
0Y
0d
0_
b111 e
b111 p
b111 X"
0^
0c
0Z
b11000000000100 V
b11000000000100 W"
b11000000000100 `"
b11000000000100 m"
b0 U
b0 a"
b0 l"
b11000000000100 A
b11000000000100 _"
b11000000000100 c"
b11000000000100 n"
b11000000000100 q"
0!
b10 #
#60
1!
b11 #
#80
b0 .
b0 j
b0 ("
b0 ,
b0 %"
b0 5"
b0 G"
b1111111111111111 5
b1111111111111111 6"
b1111111111111111 A"
b1111111111111111 S"
b1111111111111111 k"
0>
b111 i
b111 s
b111 R"
0=
b111100000100010111111111111111 /
b111100000100010111111111111111 ^"
b111100000100010111111111111111 b"
b11000000001100 B
b11000000001100 o"
b11000000001100 p"
b11111 E"
b11111 D"
b1111111111111111 @"
b11111111111111111111111111 T"
b11111 t"
b11111 s"
b111111 r
b0 C"
b0 B"
b0 o
b0 #"
b0 $"
b0 *
b0 ""
b0 &"
b0 +
b0 l
b0 {
0K"
0J"
b11000000001000 A
b11000000001000 _"
b11000000001000 c"
b11000000001000 n"
b11000000001000 q"
b11000000001000 V
b11000000001000 W"
b11000000001000 `"
b11000000001000 m"
b11111111111111111111111111111111 U
b11111111111111111111111111111111 a"
b11111111111111111111111111111111 l"
b0 a
b0 '"
b0 Y"
1Y
b10 e
b10 p
b10 X"
1Z
b0 X
b0 7"
b0 ]"
b11000000000100 ]
b11000000000100 9"
b11000000000100 Z"
b0 [
b0 !"
b0 8"
b0 \"
b0 \
b0 z
b0 ["
1F
0P
0L
0O
0N
0Q
0!
b100 #
#100
1!
b101 #
#120
b11111 ,
b11111 %"
b11111 5"
b11111 G"
0f
bx /"
b111111111111111 5
b111111111111111 6"
b111111111111111 A"
b111111111111111 S"
b111111111111111 k"
1h
1=
b11 i
b11 s
b11 R"
b1 2
b1 +"
b1 N"
1J"
b11111 C"
b11111 B"
b111111 o
b11111 #"
b11111 $"
b10001 E"
b0 D"
b111111111111111 @"
b100010111111111111111 T"
b10001 t"
b0 s"
b1111 r
b110110001100011111111111111111 /
b110110001100011111111111111111 ^"
b110110001100011111111111111111 b"
b11000000010000 B
b11000000010000 o"
b11000000010000 p"
0;
0<
b11000000000100 G
b11000000000100 <"
b11000000000100 e"
b0 I
b0 >"
b0 F"
b0 f"
b0 M
b0 2"
b0 ="
b1000011000000000000 ?
b1000011000000000000 ?"
b0 J
b0 :"
1L
b1111111111111111 a
b1111111111111111 '"
b1111111111111111 Y"
0Y
b111 e
b111 p
b111 X"
0Z
b11111111111111111111111111 X
b11111111111111111111111111 7"
b11111111111111111111111111 ]"
b11000000001000 ]
b11000000001000 9"
b11000000001000 Z"
b11000000001100 V
b11000000001100 W"
b11000000001100 `"
b11000000001100 m"
b111100000100010111111111111111 U
b111100000100010111111111111111 a"
b111100000100010111111111111111 l"
b11000000001100 A
b11000000001100 _"
b11000000001100 c"
b11000000001100 n"
b11000000001100 q"
0!
b110 #
#140
1!
b111 #
#160
b10001 ,
b10001 %"
b10001 5"
b10001 G"
b111111111111111 .
b111111111111111 j
b111111111111111 ("
0$
b1111111111111111 5
b1111111111111111 6"
b1111111111111111 A"
b1111111111111111 S"
b1111111111111111 k"
1h
b100 i
b100 s
b100 R"
1=
0)
b1111111111111110000000000000000 7
b1111111111111110000000000000000 m
b1111111111111110000000000000000 )"
b1111111111111110000000000000000 4"
1f
b0 /"
b100010001100100000000000000001 /
b100010001100100000000000000001 ^"
b100010001100100000000000000001 b"
b11000000010100 B
b11000000010100 o"
b11000000010100 p"
b10001 D"
b1111111111111111 @"
b10001100011111111111111111 T"
b10001 s"
b1101 r
0%
b101 8
b101 k
b101 q
b10001 C"
b0 B"
b1111 #"
b10001 $"
0J"
b0 2
b0 +"
b0 N"
b11000000010000 A
b11000000010000 _"
b11000000010000 c"
b11000000010000 n"
b11000000010000 q"
b11000000010000 V
b11000000010000 W"
b11000000010000 `"
b11000000010000 m"
b110110001100011111111111111111 U
b110110001100011111111111111111 a"
b110110001100011111111111111111 l"
b111111111111111 a
b111111111111111 '"
b111111111111111 Y"
1Y
1d
b11 e
b11 p
b11 X"
b100010111111111111111 X
b100010111111111111111 7"
b100010111111111111111 ]"
b11000000001100 ]
b11000000001100 9"
b11000000001100 Z"
b11000000001000 G
b11000000001000 <"
b11000000001000 e"
b11111 I
b11111 >"
b11111 F"
b11111 f"
b100011000000000100 ?
b100011000000000100 ?"
b11111111111111111111111111 J
b11111111111111111111111111 :"
0L
b0 (
b0 H"
b0 j"
b0 r"
0!
b1000 #
#180
1!
b1001 #
#200
b1111111111111111 .
b1111111111111111 j
b1111111111111111 ("
b1111111111111111111111111111111 7
b1111111111111111111111111111111 m
b1111111111111111111111111111111 )"
b1111111111111111111111111111111 4"
b1 5
b1 6"
b1 A"
b1 S"
b1 k"
1h
b0 i
b0 s
b0 R"
1=
b1111111111111110000000000000000 +
b1111111111111110000000000000000 l
b1111111111111110000000000000000 {
b1111111111111110000000000000000 *
b1111111111111110000000000000000 ""
b1111111111111110000000000000000 &"
0f
b1111111111111110000000000000000 /"
b1 2
b1 +"
b1 N"
1J"
b10 1
b10 }
b10 Q"
b10 3
b10 x
b10 P"
b1 8
b1 k
b1 q
b10001 B"
b11111 #"
b10010 E"
b1 @"
b10001100100000000000000001 T"
b10010 t"
b1000 r
b10001100011000100000100000 /
b10001100011000100000100000 ^"
b10001100011000100000100000 b"
b11000000011000 B
b11000000011000 o"
b11000000011000 p"
b11111 (
b11111 H"
b11111 j"
b11111 r"
0H
b11000000001100 G
b11000000001100 <"
b11000000001100 e"
0F
b10001 I
b10001 >"
b10001 F"
b10001 f"
b1111111111111110000000000000000 K
b1111111111111110000000000000000 y
b1111111111111110000000000000000 ~
b1111111111111110000000000000000 ."
b1111111111111110000000000000000 3"
b1111111111111110000000000000000 ;"
b1111111111111110000000000000000 d"
0E
b1000011000000001000 ?
b1000011000000001000 ?"
b100010111111111111111 J
b100010111111111111111 :"
1L
b1111111111111111 a
b1111111111111111 '"
b1111111111111111 Y"
b100 e
b100 p
b100 X"
b10001100011111111111111111 X
b10001100011111111111111111 7"
b10001100011111111111111111 ]"
b11000000010000 ]
b11000000010000 9"
b11000000010000 Z"
b11000000010100 V
b11000000010100 W"
b11000000010100 `"
b11000000010100 m"
b100010001100100000000000000001 U
b100010001100100000000000000001 a"
b100010001100100000000000000001 l"
b11000000010100 A
b11000000010100 _"
b11000000010100 c"
b11000000010100 n"
b11000000010100 q"
0!
b1010 #
#220
1!
b1011 #
#240
b10010 ,
b10010 %"
b10010 5"
b10010 G"
b1 .
b1 j
b1 ("
b1111111111111110000000000000000 -
b1111111111111110000000000000000 v
b1111111111111110000000000000000 w
b1111111111111110000000000000000 |
b1111111111111110000000000000000 u"
1f
b1111111111111111111111111111111 0"
b1000100000100000 5
b1000100000100000 6"
b1000100000100000 A"
b1000100000100000 S"
b1000100000100000 k"
1>
b10 i
b10 s
b10 R"
0h
1=
b1 0
b1 *"
b1 O"
1K"
1)
b10000000000000000000000000000000 n
b100100000100010000000000000010 /
b100100000100010000000000000010 ^"
b100100000100010000000000000010 b"
b11000000011100 B
b11000000011100 o"
b11000000011100 p"
b10001 E"
b1000100000100000 @"
b10001100011000100000100000 T"
b10001 t"
b0 r
b10 8
b10 k
b10 q
b10010 C"
b1 o
b0 #"
b10010 $"
b1111111111111111111111111111111 +
b1111111111111111111111111111111 l
b1111111111111111111111111111111 {
b0 *
b0 ""
b0 &"
b1111111111111111111111111111111 /"
b1 2
b1 +"
b1 N"
b0 1
b0 }
b0 Q"
b10 3
b10 x
b10 P"
b11000000011000 A
b11000000011000 _"
b11000000011000 c"
b11000000011000 n"
b11000000011000 q"
b11000000011000 V
b11000000011000 W"
b11000000011000 `"
b11000000011000 m"
b10001100011000100000100000 U
b10001100011000100000100000 a"
b10001100011000100000100000 l"
b1 a
b1 '"
b1 Y"
b0 e
b0 p
b0 X"
b10001100100000000000000001 X
b10001100100000000000000001 7"
b10001100100000000000000001 ]"
b11000000010100 ]
b11000000010100 9"
b11000000010100 Z"
b11000000010000 G
b11000000010000 <"
b11000000010000 e"
b1111111111111111111111111111111 K
b1111111111111111111111111111111 y
b1111111111111111111111111111111 ~
b1111111111111111111111111111111 ."
b1111111111111111111111111111111 3"
b1111111111111111111111111111111 ;"
b1111111111111111111111111111111 d"
b11000000010100 ?
b11000000010100 ?"
b10001100011111111111111111 J
b10001100011111111111111111 :"
1;
b10001 (
b10001 H"
b10001 j"
b10001 r"
b1111111111111110000000000000000 :
b1111111111111110000000000000000 u
b1111111111111110000000000000000 h"
0!
b1100 #
#260
b1111111111111110000000000000000 '
b1111111111111110000000000000000 -"
b1111111111111110000000000000000 V"
b1111111111111110000000000000000 w"
b1111111111111110000000000000000 &
b1111111111111110000000000000000 ,"
b1111111111111110000000000000000 U"
b1111111111111110000000000000000 v"
1!
b1101 #
#280
b1111111111111111111111111111111 -
b1111111111111111111111111111111 v
b1111111111111111111111111111111 w
b1111111111111111111111111111111 |
b1111111111111111111111111111111 u"
b1111111111111111111111111111111 .
b1111111111111111111111111111111 j
b1111111111111111111111111111111 ("
b10001 ,
b10001 %"
b10001 5"
b10001 G"
1)
b1111111111111110000000000000001 7
b1111111111111110000000000000001 m
b1111111111111110000000000000001 )"
b1111111111111110000000000000001 4"
b11111111111111111111111111111110 n
0f
b1111111111111110000000000000000 0"
b0 /"
b1111111111111111111111111111111 +
b1111111111111111111111111111111 l
b1111111111111111111111111111111 {
b10 5
b10 6"
b10 A"
b10 S"
b10 k"
b0 '
b0 -"
b0 V"
b0 w"
1h
1W
0>
b0 i
b0 s
b0 R"
1=
0K"
0J"
b1 1
b1 }
b1 Q"
b0 0
b0 *"
b0 O"
b0 2
b0 +"
b0 N"
b1 3
b1 x
b1 P"
b10001 C"
b100000 o
b10001 #"
b10001 $"
b1111111111111111111111111111111 *
b1111111111111111111111111111111 ""
b1111111111111111111111111111111 &"
b0 D"
b10 @"
b100010000000000000010 T"
b0 s"
b1001 r
b100100000100100000000000000001 /
b100100000100100000000000000001 ^"
b100100000100100000000000000001 b"
b11000000100000 B
b11000000100000 o"
b11000000100000 p"
b1111111111111111111111111111111 :
b1111111111111111111111111111111 u
b1111111111111111111111111111111 h"
1H
b11000000010100 G
b11000000010100 <"
b11000000010100 e"
b10010 I
b10010 >"
b10010 F"
b10010 f"
b100101000010010100 ?
b100101000010010100 ?"
b10001100100000000000000001 J
b10001100100000000000000001 :"
b1000100000100000 a
b1000100000100000 '"
b1000100000100000 Y"
0d
b10 e
b10 p
b10 X"
1Z
b10001100011000100000100000 X
b10001100011000100000100000 7"
b10001100011000100000100000 ]"
b11000000011000 ]
b11000000011000 9"
b11000000011000 Z"
b1111111111111110000000000000000 [
b1111111111111110000000000000000 !"
b1111111111111110000000000000000 8"
b1111111111111110000000000000000 \"
b1111111111111110000000000000000 \
b1111111111111110000000000000000 z
b1111111111111110000000000000000 ["
b11000000011100 V
b11000000011100 W"
b11000000011100 `"
b11000000011100 m"
b100100000100010000000000000010 U
b100100000100010000000000000010 a"
b100100000100010000000000000010 l"
b11000000011100 A
b11000000011100 _"
b11000000011100 c"
b11000000011100 n"
b11000000011100 q"
0!
b1110 #
#300
b1111111111111111111111111111111 0"
b1111111111111111111111111111111 &
b1111111111111111111111111111111 ,"
b1111111111111111111111111111111 U"
b1111111111111111111111111111111 v"
1!
b1111 #
#320
b10 .
b10 j
b10 ("
0)
b10 7
b10 m
b10 )"
b10 4"
1f
b1 5
b1 6"
b1 A"
b1 S"
b1 k"
b0 &
b0 ,"
b0 U"
b0 v"
b10 n
b100000000100010000000000000001 /
b100000000100010000000000000001 ^"
b100000000100010000000000000001 b"
b11000000100100 B
b11000000100100 o"
b11000000100100 p"
b10010 E"
b1 @"
b100100000000000000001 T"
b10010 t"
b0 B"
b10 o
b0 #"
b0 +
b0 l
b0 {
b1111111111111110000000000000001 *
b1111111111111110000000000000001 ""
b1111111111111110000000000000001 &"
b0 0"
b0 0
b0 *"
b0 O"
0K"
b10 1
b10 }
b10 Q"
b0 3
b0 x
b0 P"
b11000000100000 A
b11000000100000 _"
b11000000100000 c"
b11000000100000 n"
b11000000100000 q"
b11000000100000 V
b11000000100000 W"
b11000000100000 `"
b11000000100000 m"
b100100000100100000000000000001 U
b100100000100100000000000000001 a"
b100100000100100000000000000001 l"
b10 a
b10 '"
b10 Y"
1b
1d
b0 e
b0 p
b0 X"
0Z
b100010000000000000010 X
b100010000000000000010 7"
b100010000000000000010 ]"
b11000000011100 ]
b11000000011100 9"
b11000000011100 Z"
b1111111111111111111111111111111 [
b1111111111111111111111111111111 !"
b1111111111111111111111111111111 8"
b1111111111111111111111111111111 \"
b0 \
b0 z
b0 ["
b11000000011000 G
b11000000011000 <"
b11000000011000 e"
b10001 I
b10001 >"
b10001 F"
b10001 f"
b1111111111111110000000000000000 M
b1111111111111110000000000000000 2"
b1111111111111110000000000000000 ="
b1111111111111110000000000000001 K
b1111111111111110000000000000001 y
b1111111111111110000000000000001 ~
b1111111111111110000000000000001 ."
b1111111111111110000000000000001 3"
b1111111111111110000000000000001 ;"
b1111111111111110000000000000001 d"
b11000000100000 ?
b11000000100000 ?"
b10001100011000100000100000 J
b10001100011000100000100000 :"
0;
b10010 (
b10010 H"
b10010 j"
b10010 r"
0!
b10000 #
#340
1!
b10001 #
#360
b1 7
b1 m
b1 )"
b1 4"
b1 n
b10010 ,
b10010 %"
b10010 5"
b10010 G"
b1111111111111110000000000000001 -
b1111111111111110000000000000001 v
b1111111111111110000000000000001 w
b1111111111111110000000000000001 |
b1111111111111110000000000000001 u"
b1 .
b1 j
b1 ("
0f
b10 0"
b1111111111111111111111111111111 &
b1111111111111111111111111111111 ,"
b1111111111111111111111111111111 U"
b1111111111111111111111111111111 v"
1h
1=
0W
b1 0
b1 *"
b1 O"
1K"
b0 1
b0 }
b0 Q"
b10010 C"
b1 o
b10010 $"
b0 *
b0 ""
b0 &"
b10001 E"
b100010000000000000001 T"
b10001 t"
b1000 r
b100000000100100000000000000010 /
b100000000100100000000000000010 ^"
b100000000100100000000000000010 b"
b11000000101000 B
b11000000101000 o"
b11000000101000 p"
b10001 (
b10001 H"
b10001 j"
b10001 r"
b1111111111111110000000000000001 :
b1111111111111110000000000000001 u
b1111111111111110000000000000001 h"
0H
b11000000011100 G
b11000000011100 <"
b11000000011100 e"
b1111111111111111111111111111111 M
b1111111111111111111111111111111 2"
b1111111111111111111111111111111 ="
b10 K
b10 y
b10 ~
b10 ."
b10 3"
b10 ;"
b10 d"
b100010000000000000010 J
b100010000000000000010 :"
b1 a
b1 '"
b1 Y"
b100100000000000000001 X
b100100000000000000001 7"
b100100000000000000001 ]"
b11000000100000 ]
b11000000100000 9"
b11000000100000 Z"
b0 [
b0 !"
b0 8"
b0 \"
b11000000100100 V
b11000000100100 W"
b11000000100100 `"
b11000000100100 m"
b100000000100010000000000000001 U
b100000000100010000000000000001 a"
b100000000100010000000000000001 l"
b11000000100100 A
b11000000100100 _"
b11000000100100 c"
b11000000100100 n"
b11000000100100 q"
0!
b10010 #
#380
1!
b10011 #
